SELECT * FROM conferencing_reminderconference
WHERE
( (rule_id = 1) AND (DATE(start)<= DATE(CONVERT_TZ(now(),@@global.time_zone, "{{ time_zone }}")) ) AND (DATE(period)>=DATE(CONVERT_TZ(now(), @@global.time_zone ,"{{ time_zone }}"))) AND (time_send <= TIME(CONVERT_TZ(now(),@@global.time_zone ,"{{ time_zone }}"))) AND (time_send > SUBTIME(TIME(CONVERT_TZ(now(),@@global.time_zone ,"{{ time_zone }}")),"00:{{ minutes }}:00")))
OR ( (rule_id = 2) AND (DATE(start)<= DATE(CONVERT_TZ(now(),@@global.time_zone,"{{ time_zone }}")) ) AND (DATE(period) >=DATE(CONVERT_TZ(now(),@@global.time_zone ,"{{ time_zone }}"))) AND (weekly LIKE CONCAT('%%',DATE_FORMAT(CONVERT_TZ(now(),"{{ time_zone }}",timezone), "%%W"),'%%') ) AND (time_send <= TIME(CONVERT_TZ(now(),@@global.time_zone,"{{ time_zone }}"))) AND (time_send > SUBTIME(TIME(CONVERT_TZ(now(),@@global.time_zone,"{{ time_zone }}")),"00:{{ minutes }}:00")))
OR ( (rule_id = 3) AND (DATE(start)<= DATE(CONVERT_TZ(now(),@@global.time_zone,"{{ time_zone }}")) ) AND (DATE(period)>=DATE(CONVERT_TZ(now(),@@global.time_zone,"{{ time_zone }}"))) AND ( (DAY(CONVERT_TZ(now(),"{{ time_zone }}",timezone))= monthly) OR ( (monthly = "endmonth") AND ( DAY(CONVERT_TZ(now(),@@global.time_zone,"{{ time_zone }}"))= day(LAST_DAY(CONVERT_TZ(now(),@@global.time_zone,"{{ time_zone }}"))) )  )  ) AND (time_send <= TIME(CONVERT_TZ(now(),@@global.time_zone,"{{ time_zone }}"))) AND (time_send > SUBTIME(TIME(CONVERT_TZ(now(),@@global.time_zone,"{{ time_zone }}")),"00:{{ minutes }}:00")))
